^D:\MOYABURSAV2\ALGORITM\PRAKT2\PRAKT2\DEBUG\PRAKT2.OBJ|D:\MOYABURSAV2\ALGORITM\PRAKT2\PRAKT2\DEBUG\STDAFX.OBJ
D:\MOYABURSAV2\ALGORITM\PRAKT2\DEBUG\PRAKT2.ILK
D:\MOYABURSAV2\ALGORITM\PRAKT2\DEBUG\PRAKT2.EXE
D:\MOYABURSAV2\ALGORITM\PRAKT2\DEBUG\PRAKT2.PDB
